,title,genres,runtime,rating,votes,gross
0,The Shawshank Redemption,Drama            ,142 min,9.3,"2,557,442",$28.34M
1,The Dark Knight,Action| Crime| Drama            ,152 min,9.1,"2,515,739",$534.86M
2,Inception,Action| Adventure| Sci-Fi            ,148 min,8.8,"2,245,966",$292.58M
3,Fight Club,Drama            ,139 min,8.8,"2,013,415",$37.03M
4,Forrest Gump,Drama| Romance            ,142 min,8.8,"1,973,705",$330.25M
5,Pulp Fiction,Crime| Drama            ,154 min,8.9,"1,965,482",$107.93M
6,The Matrix,Action| Sci-Fi            ,136 min,8.7,"1,843,346",$171.48M
7,The Lord of the Rings: The Fellowship of the Ring,Action| Adventure| Drama            ,178 min,8.9,"1,783,703",$315.54M
8,The Lord of the Rings: The Return of the King,Action| Adventure| Drama            ,201 min,9,"1,761,777",$377.85M
9,The Godfather,,175 min,9.2,"1,760,572",$134.97M
10,The Dark Knight Rises,Action| Crime| Drama            ,164 min,8.4,"1,629,444",
11,The Lord of the Rings: The Two Towers,Action| Adventure| Drama            ,179 min,8.8,"1,591,702",$342.55M
12,Se7en,Crime| Drama| Mystery            ,127 min,8.6,"1,568,610",$100.13M
13,Django Unchained,Drama| Western            ,165 min,,"1,478,353",$162.81M
14,Gladiator,Action| Adventure| Drama            ,155 min,8.5,"1,441,008",$187.71M
15,Batman Begins,Action| Crime| Drama            ,140 min,8.3,,$206.85M
16,Inglourious Basterds,Adventure| Drama| War            ,153 min,8.3,"1,379,464",$120.54M
17,The Silence of the Lambs,,118 min,8.6,"1,372,721",$130.74M
18,The Avengers,Action| Adventure| Sci-Fi            ,143 min,8.1,"1,343,264",$623.28M
19,Saving Private Ryan,Drama| War            ,169 min,8.6,"1,333,567",$216.54M
20,Star Wars,Action| Adventure| Fantasy            ,121 min,,"1,310,503",$322.74M
21,Schindler's List,Biography| Drama| History            ,195 min,9,"1,304,473",$96.90M
22,The Prestige,Drama| Mystery| Thriller            ,130 min,8.5,"1,282,398",$53.09M
23,The Departed,Crime| Drama| Thriller            ,151 min,8.5,"1,274,835",$132.38M
24,The Green Mile,Crime| Drama| Fantasy            ,189 min,8.6,"1,244,014",$136.80M
25,Shutter Island,Mystery| Thriller            ,138 min,8.2,"1,243,207",$128.01M
26,The Empire Strikes Back,Action| Adventure| Fantasy            ,124 min,8.7,"1,239,035",$290.48M
27,The Godfather: Part II,Crime| Drama            ,202 min,9,"1,219,448",$57.30M
28,Memento,Mystery| Thriller            ,113 min,8.5,"1,198,063",$25.54M
29,Avatar,Action| Adventure| Fantasy            ,162 min,7.9,"1,183,340",$760.51M
30,Back to the Future,Adventure| Comedy| Sci-Fi            ,116 min,8.6,"1,148,883",$210.61M
31,American Beauty,Drama            ,122 min,8.4,"1,125,302",$130.10M
32,Titanic,Drama| Romance            ,194 min,7.9,"1,124,413",$659.33M
33,Léon,Action| Crime| Drama            ,110 min,8.6,"1,116,210",$19.50M
34,Goodfellas,Biography| Crime| Drama            ,146 min,8.7,"1,104,707",$46.84M
35,V for Vendetta,Action| Drama| Sci-Fi            ,132 min,8.2,"1,091,528",$70.51M
36,American History X,Drama            ,119 min,8.5,"1,089,284",$6.72M
37,Kill Bill: Vol. 1,Action| Crime| Drama            ,111 min,8.2,"1,074,792",$70.10M
38,WALL·E,Animation| Adventure| Family            ,98 min,8.4,"1,073,518",$223.81M
39,Pirates of the Caribbean: The Curse of the Black Pearl,Action| Adventure| Fantasy            ,143 min,8.1,"1,066,939",$305.41M
40,Terminator 2: Judgment Day,Action| Sci-Fi            ,137 min,8.6,"1,059,759",$204.84M
41,The Usual Suspects,Crime| Drama| Mystery            ,106 min,8.5,"1,053,410",$23.34M
42,The Truman Show,Comedy| Drama            ,103 min,8.2,"1,023,856",$125.62M
43,Iron Man,Action| Adventure| Sci-Fi            ,126 min,7.9,"1,016,926",$318.41M
44,The Lion King,Animation| Adventure| Drama            ,88 min,8.5,"1,014,129",$422.78M
45,Star Wars: Episode VI - Return of the Jedi,Action| Adventure| Fantasy            ,131 min,8.3,"1,012,709",$309.13M
46,Braveheart,Biography| Drama| History            ,178 min,8.4,"1,010,028",$75.60M
47,Finding Nemo,Animation| Adventure| Comedy            ,100 min,8.2,"1,008,792",$380.84M
48,Up,Animation| Adventure| Comedy            ,96 min,8.3,"1,004,503",$293.00M
49,Reservoir Dogs,Crime| Drama| Thriller            ,99 min,8.3,"982,508",$2.83M
